[gd_scene load_steps=2 format=2]

[ext_resource path="res://plugins/minigames/bowling/player.gd" type="Script" id=1]



[node name="Player" type="KinematicBody" groups=[
"players",
]]

input_ray_pickable = true
input_capture_on_drag = false
collision_layer = 2
collision_mask = 7
axis_lock_linear_x = false
axis_lock_linear_y = false
axis_lock_linear_z = false
axis_lock_angular_x = false
axis_lock_angular_y = false
axis_lock_angular_z = false
collision/safe_margin = 0.001
script = ExtResource( 1 )
_sections_unfolded = [ "Collision" ]
is_solo_player = false

[node name="Shape" type="CollisionShape" parent="." index="0"]

transform = Transform( 1, 0, 5.30863e-14, 5.30863e-14, 1.62921e-07, -1, 0, 1, 1.62921e-07, 0, 0.4, 0 )
shape = null
disabled = false
_sections_unfolded = [ "Transform" ]

[node name="Model" type="Spatial" parent="." index="1"]

_sections_unfolded = [ "Transform" ]


