[gd_resource type="DynamicFont" load_steps=2 format=2]

[ext_resource path="res://assets/fonts/Boogaloo-Regular.ttf" type="DynamicFontData" id=1]


[resource]

size = 70
use_mipmaps = true
use_filter = true
font_data = ExtResource( 1 )
_sections_unfolded = [ "Font", "Settings" ]

