[gd_scene load_steps=2 format=2]

[ext_resource path="res://scenes/waypoint/waypoint.gd" type="Script" id=1]

[node name="Waypoint" type="Position3D" index="0"]

script = ExtResource( 1 )

[node name="EditorLines" type="ImmediateGeometry" parent="." index="0"]

layers = 1
material_override = null
cast_shadow = 1
extra_cull_margin = 0.0
use_in_baked_light = false
lod_min_distance = 0.0
lod_min_hysteresis = 0.0
lod_max_distance = 0.0
lod_max_hysteresis = 0.0


