[gd_resource type="ArrayMesh" load_steps=2 format=2]

[sub_resource type="SpatialMaterial" id=1]

render_priority = 0
flags_transparent = false
flags_unshaded = false
flags_vertex_lighting = false
flags_no_depth_test = false
flags_use_point_size = false
flags_world_triplanar = false
flags_fixed_size = false
flags_albedo_tex_force_srgb = false
vertex_color_use_as_albedo = false
vertex_color_is_srgb = false
params_diffuse_mode = 0
params_specular_mode = 0
params_blend_mode = 0
params_cull_mode = 0
params_depth_draw_mode = 0
params_line_width = 1.0
params_point_size = 1.0
params_billboard_mode = 0
params_grow = false
params_use_alpha_scissor = false
albedo_color = Color( 0.8, 0.8, 0.8, 1 )
metallic = 0.0
metallic_specular = 0.5
metallic_texture_channel = 0
roughness = 0.0
roughness_texture_channel = 0
emission_enabled = false
normal_enabled = false
rim_enabled = false
clearcoat_enabled = false
anisotropy_enabled = false
ao_enabled = false
depth_enabled = false
subsurf_scatter_enabled = false
transmission_enabled = false
refraction_enabled = false
detail_enabled = false
uv1_scale = Vector3( 1, 1, 1 )
uv1_offset = Vector3( 0, 0, 0 )
uv1_triplanar = false
uv1_triplanar_sharpness = 1.0
uv2_scale = Vector3( 1, 1, 1 )
uv2_offset = Vector3( 0, 0, 0 )
uv2_triplanar = false
uv2_triplanar_sharpness = 1.0
proximity_fade_enable = false
distance_fade_enable = false

[resource]

blend_shape_mode = 1
custom_aabb = AABB( 0, 0, 0, 0, 0, 0 )
surfaces/0 = {
"aabb": AABB( -1.84194, -1.481, -1.47085, 3.40995, 2.48101, 3.32465 ),
"array_data": PoolByteArray( 240, 184, 0, 60, 213, 188, 0, 60, 0, 127, 0, 0, 126, 0, 241, 127, 108, 54, 9, 44, 61, 189, 0, 60, 149, 188, 0, 60, 0, 127, 0, 0, 126, 0, 241, 127, 60, 50, 48, 43, 103, 190, 0, 60, 21, 184, 0, 60, 0, 127, 0, 0, 126, 0, 241, 127, 130, 45, 115, 51, 94, 191, 0, 60, 140, 174, 0, 60, 0, 127, 0, 0, 126, 0, 241, 127, 125, 6, 129, 53, 47, 191, 0, 60, 45, 52, 0, 60, 0, 127, 0, 0, 126, 0, 241, 127, 126, 6, 63, 55, 103, 190, 0, 60, 21, 184, 0, 60, 0, 127, 0, 0, 126, 0, 241, 127, 130, 45, 115, 51, 103, 190, 0, 60, 21, 184, 0, 60, 0, 127, 0, 0, 126, 0, 241, 127, 130, 45, 115, 51, 47, 191, 0, 60, 45, 52, 0, 60, 0, 127, 0, 0, 126, 0, 241, 127, 126, 6, 63, 55, 240, 184, 0, 60, 213, 188, 0, 60, 0, 127, 0, 0, 126, 0, 241, 127, 108, 54, 9, 44, 160, 190, 0, 60, 133, 56, 0, 60, 7, 126, 253, 0, 125, 249, 241, 127, 184, 39, 97, 56, 122, 189, 237, 59, 153, 58, 0, 60, 7, 126, 253, 0, 125, 249, 241, 127, 188, 46, 20, 57, 47, 191, 0, 60, 45, 52, 0, 60, 7, 126, 253, 0, 125, 249, 241, 127, 126, 6, 63, 55, 43, 185, 0, 60, 7, 61, 0, 60, 0, 126, 254, 0, 126, 0, 241, 127, 215, 52, 79, 58, 122, 189, 237, 59, 153, 58, 0, 60, 0, 126, 254, 0, 126, 0, 241, 127, 188, 46, 20, 57, 150, 188, 0, 60, 68, 61, 0, 60, 0, 126, 254, 0, 126, 0, 241, 127, 230, 48, 77, 58, 31, 173, 0, 60, 174, 61, 0, 60, 0, 127, 0, 0, 126, 0, 241, 127, 106, 55, 219, 58, 240, 184, 0, 60, 213, 188, 0, 60, 0, 127, 0, 0, 126, 0, 241, 127, 108, 54, 9, 44, 47, 191, 0, 60, 45, 52, 0, 60, 0, 127, 0, 0, 126, 0, 241, 127, 126, 6, 63, 55, 31, 173, 0, 60, 174, 61, 0, 60, 0, 127, 0, 0, 126, 0, 241, 127, 106, 55, 219, 58, 47, 191, 0, 60, 45, 52, 0, 60, 0, 127, 0, 0, 126, 0, 241, 127, 126, 6, 63, 55, 43, 185, 0, 60, 7, 61, 0, 60, 0, 127, 0, 0, 126, 0, 241, 127, 215, 52, 79, 58, 47, 191, 0, 60, 45, 52, 0, 60, 251, 126, 6, 0, 125, 5, 241, 127, 126, 6, 63, 55, 122, 189, 237, 59, 153, 58, 0, 60, 251, 126, 6, 0, 125, 5, 241, 127, 188, 46, 20, 57, 43, 185, 0, 60, 7, 61, 0, 60, 251, 126, 6, 0, 125, 5, 241, 127, 215, 52, 79, 58, 63, 53, 0, 60, 106, 63, 0, 60, 0, 127, 0, 0, 126, 0, 241, 127, 139, 56, 255, 59, 196, 57, 0, 60, 82, 61, 0, 60, 0, 127, 0, 0, 126, 0, 241, 127, 159, 57, 225, 58, 31, 173, 0, 60, 174, 61, 0, 60, 0, 127, 0, 0, 126, 0, 241, 127, 106, 55, 219, 58, 240, 184, 0, 60, 213, 188, 0, 60, 0, 127, 0, 0, 126, 0, 241, 127, 108, 54, 9, 44, 196, 57, 0, 60, 82, 61, 0, 60, 0, 127, 0, 0, 126, 0, 241, 127, 159, 57, 225, 58, 43, 179, 0, 60, 226, 189, 0, 60, 0, 127, 0, 0, 126, 0, 241, 127, 54, 56, 124, 6, 240, 184, 0, 60, 213, 188, 0, 60, 0, 127, 0, 0, 126, 0, 241, 127, 108, 54, 9, 44, 31, 173, 0, 60, 174, 61, 0, 60, 0, 127, 0, 0, 126, 0, 241, 127, 106, 55, 219, 58, 196, 57, 0, 60, 82, 61, 0, 60, 0, 127, 0, 0, 126, 0, 241, 127, 159, 57, 225, 58, 43, 179, 0, 60, 226, 189, 0, 60, 0, 127, 0, 0, 126, 0, 241, 127, 54, 56, 124, 6, 196, 57, 0, 60, 82, 61, 0, 60, 0, 127, 0, 0, 126, 0, 241, 127, 159, 57, 225, 58, 79, 51, 0, 60, 150, 189, 0, 60, 0, 127, 0, 0, 126, 0, 241, 127, 66, 57, 231, 40, 218, 56, 0, 60, 106, 188, 0, 60, 0, 127, 0, 0, 126, 0, 241, 127, 16, 58, 109, 48, 63, 61, 0, 60, 11, 61, 0, 60, 0, 127, 0, 0, 126, 0, 241, 127, 9, 59, 227, 58, 1, 61, 0, 60, 136, 185, 0, 60, 0, 127, 0, 0, 126, 0, 241, 127, 118, 59, 137, 52, 0, 60, 0, 60, 186, 188, 0, 60, 0, 127, 0, 0, 126, 0, 241, 127, 3, 59, 41, 48, 218, 56, 0, 60, 106, 188, 0, 60, 0, 127, 0, 0, 126, 0, 241, 127, 16, 58, 109, 48, 225, 61, 0, 60, 226, 179, 0, 60, 0, 127, 0, 0, 126, 0, 241, 127, 217, 59, 195, 54, 225, 61, 0, 60, 226, 179, 0, 60, 0, 127, 0, 0, 126, 0, 241, 127, 217, 59, 195, 54, 218, 56, 0, 60, 106, 188, 0, 60, 0, 127, 0, 0, 126, 0, 241, 127, 16, 58, 109, 48, 22, 61, 0, 60, 140, 51, 0, 60, 0, 127, 0, 0, 126, 0, 241, 127, 62, 59, 118, 56, 63, 61, 0, 60, 11, 61, 0, 60, 0, 127, 0, 0, 126, 0, 241, 127, 9, 59, 227, 58, 69, 62, 0, 60, 104, 57, 0, 60, 0, 127, 0, 0, 126, 0, 241, 127, 207, 59, 149, 57, 22, 61, 0, 60, 140, 51, 0, 60, 0, 127, 0, 0, 126, 0, 241, 127, 62, 59, 118, 56, 63, 61, 0, 60, 11, 61, 0, 60, 0, 127, 0, 0, 126, 0, 241, 127, 9, 59, 227, 58, 167, 60, 143, 187, 165, 186, 0, 60, 186, 197, 87, 0, 162, 246, 173, 127, 29, 54, 37, 33, 79, 57, 21, 183, 34, 187, 0, 60, 186, 197, 87, 0, 162, 246, 173, 127, 158, 56, 72, 49, 0, 60, 0, 188, 0, 188, 0, 60, 186, 197, 87, 0, 162, 246, 173, 127, 77, 55, 49, 6, 0, 60, 0, 188, 0, 60, 0, 60, 40, 136, 0, 0, 193, 235, 148, 127, 49, 6, 185, 54, 2, 58, 85, 188, 165, 60, 0, 60, 40, 136, 0, 0, 193, 235, 148, 127, 54, 6, 32, 56, 48, 56, 163, 188, 180, 59, 0, 60, 40, 136, 0, 0, 193, 235, 148, 127, 220, 45, 95, 56, 29, 60, 236, 187, 65, 54, 0, 60, 243, 139, 210, 0, 186, 45, 161, 127, 252, 48, 3, 53, 48, 56, 163, 188, 180, 59, 0, 60, 243, 139, 210, 0, 186, 45, 161, 127, 220, 45, 95, 56, 79, 57, 21, 183, 34, 187, 0, 60, 243, 139, 210, 0, 186, 45, 161, 127, 158, 56, 72, 49, 205, 43, 40, 185, 222, 186, 0, 60, 40, 136, 0, 0, 203, 238, 143, 127, 73, 57, 134, 53, 253, 53, 81, 184, 0, 188, 0, 60, 40, 136, 0, 0, 203, 238, 143, 127, 50, 57, 128, 51, 79, 57, 21, 183, 34, 187, 0, 60, 40, 136, 0, 0, 203, 238, 143, 127, 158, 56, 72, 49, 255, 182, 126, 186, 204, 187, 0, 60, 40, 136, 0, 0, 202, 238, 143, 127, 34, 58, 150, 55, 203, 178, 227, 185, 178, 188, 0, 60, 40, 136, 0, 0, 202, 238, 143, 127, 79, 58, 23, 54, 205, 43, 40, 185, 222, 186, 0, 60, 40, 136, 0, 0, 202, 238, 143, 127, 73, 57, 134, 53, 250, 182, 236, 189, 225, 58, 0, 60, 221, 169, 171, 0, 212, 91, 181, 127, 56, 52, 124, 58, 57, 188, 19, 188, 35, 57, 0, 60, 221, 169, 171, 0, 212, 91, 181, 127, 3, 56, 150, 59, 133, 186, 129, 187, 88, 55, 0, 60, 221, 169, 171, 0, 212, 91, 181, 127, 0, 56, 208, 58, 27, 185, 7, 187, 51, 170, 0, 60, 173, 169, 217, 0, 208, 83, 175, 127, 189, 56, 177, 57, 250, 182, 236, 189, 225, 58, 0, 60, 173, 169, 217, 0, 208, 83, 175, 127, 56, 52, 124, 58, 133, 186, 129, 187, 88, 55, 0, 60, 173, 169, 217, 0, 208, 83, 175, 127, 0, 56, 208, 58, 0, 188, 0, 188, 0, 188, 0, 60, 40, 136, 0, 0, 178, 230, 160, 127, 36, 59, 221, 56, 10, 185, 2, 187, 255, 188, 0, 60, 40, 136, 0, 0, 178, 230, 160, 127, 250, 58, 117, 55, 255, 182, 126, 186, 204, 187, 0, 60, 40, 136, 0, 0, 178, 230, 160, 127, 34, 58, 150, 55, 79, 57, 21, 183, 34, 187, 0, 60, 77, 245, 156, 0, 99, 26, 74, 127, 187, 58, 134, 49, 79, 51, 0, 60, 150, 189, 0, 60, 77, 245, 156, 0, 99, 26, 74, 127, 59, 58, 46, 55, 218, 56, 0, 60, 106, 188, 0, 60, 77, 245, 156, 0, 99, 26, 74, 127, 230, 58, 230, 54, 79, 57, 21, 183, 34, 187, 0, 60, 202, 246, 142, 0, 142, 4, 53, 127, 255, 59, 120, 54, 0, 60, 0, 60, 186, 188, 0, 60, 202, 246, 142, 0, 142, 4, 53, 127, 120, 59, 157, 48, 0, 60, 0, 188, 0, 188, 0, 60, 202, 246, 142, 0, 142, 4, 53, 127, 120, 59, 2, 56, 253, 53, 81, 184, 0, 188, 0, 60, 19, 227, 135, 0, 125, 13, 16, 127, 70, 58, 71, 49, 43, 179, 0, 60, 226, 189, 0, 60, 19, 227, 135, 0, 125, 13, 16, 127, 150, 57, 83, 55, 79, 51, 0, 60, 150, 189, 0, 60, 19, 227, 135, 0, 125, 13, 16, 127, 59, 58, 46, 55, 205, 43, 40, 185, 222, 186, 0, 60, 191, 209, 159, 0, 103, 8, 183, 127, 203, 57, 146, 48, 240, 184, 0, 60, 213, 188, 0, 60, 191, 209, 159, 0, 103, 8, 183, 127, 234, 56, 108, 55, 43, 179, 0, 60, 226, 189, 0, 60, 191, 209, 159, 0, 103, 8, 183, 127, 150, 57, 83, 55, 10, 185, 2, 187, 255, 188, 0, 60, 40, 136, 0, 0, 112, 37, 45, 127, 144, 56, 65, 48, 203, 178, 227, 185, 178, 188, 0, 60, 40, 136, 0, 0, 112, 37, 45, 127, 48, 57, 194, 48, 255, 182, 126, 186, 204, 187, 0, 60, 40, 136, 0, 0, 112, 37, 45, 127, 249, 56, 109, 46, 240, 184, 0, 60, 213, 188, 0, 60, 245, 246, 130, 0, 125, 15, 244, 127, 234, 56, 108, 55, 0, 188, 0, 188, 0, 188, 0, 60, 245, 246, 130, 0, 125, 15, 244, 127, 213, 55, 151, 47, 61, 189, 0, 60, 149, 188, 0, 60, 245, 246, 130, 0, 125, 15, 244, 127, 221, 55, 171, 55, 107, 187, 206, 187, 63, 185, 0, 60, 134, 239, 27, 0, 231, 244, 133, 127, 213, 54, 122, 47, 61, 189, 0, 60, 149, 188, 0, 60, 134, 239, 27, 0, 231, 244, 133, 127, 221, 55, 171, 55, 0, 188, 0, 188, 0, 188, 0, 60, 134, 239, 27, 0, 231, 244, 133, 127, 213, 55, 151, 47, 107, 187, 206, 187, 63, 185, 0, 60, 151, 225, 194, 0, 57, 25, 146, 127, 213, 54, 122, 47, 94, 191, 0, 60, 140, 174, 0, 60, 151, 225, 194, 0, 57, 25, 146, 127, 143, 52, 2, 56, 103, 190, 0, 60, 21, 184, 0, 60, 151, 225, 194, 0, 57, 25, 146, 127, 225, 53, 191, 55, 93, 185, 29, 187, 144, 183, 0, 60, 150, 188, 13, 0, 249, 244, 130, 127, 232, 53, 2, 47, 47, 191, 0, 60, 45, 52, 0, 60, 150, 188, 13, 0, 249, 244, 130, 127, 12, 51, 231, 55, 94, 191, 0, 60, 140, 174, 0, 60, 150, 188, 13, 0, 249, 244, 130, 127, 143, 52, 2, 56, 27, 185, 7, 187, 51, 170, 0, 60, 159, 189, 44, 0, 214, 239, 138, 127, 179, 52, 177, 46, 160, 190, 0, 60, 133, 56, 0, 60, 159, 189, 44, 0, 214, 239, 138, 127, 43, 49, 192, 55, 47, 191, 0, 60, 45, 52, 0, 60, 159, 189, 44, 0, 214, 239, 138, 127, 12, 51, 231, 55, 199, 186, 151, 187, 2, 33, 0, 60, 179, 200, 83, 0, 178, 223, 162, 127, 13, 52, 223, 46, 122, 189, 237, 59, 153, 58, 0, 60, 179, 200, 83, 0, 178, 223, 162, 127, 38, 46, 103, 55, 160, 190, 0, 60, 133, 56, 0, 60, 179, 200, 83, 0, 178, 223, 162, 127, 43, 49, 192, 55, 133, 186, 129, 187, 88, 55, 0, 60, 147, 216, 50, 0, 205, 251, 141, 127, 138, 49, 239, 46, 150, 188, 0, 60, 68, 61, 0, 60, 147, 216, 50, 0, 205, 251, 141, 127, 207, 8, 93, 55, 122, 189, 237, 59, 153, 58, 0, 60, 147, 216, 50, 0, 205, 251, 141, 127, 38, 46, 103, 55, 150, 188, 0, 60, 68, 61, 0, 60, 132, 244, 20, 0, 1, 105, 71, 127, 25, 54, 204, 56, 57, 188, 19, 188, 35, 57, 0, 60, 132, 244, 20, 0, 1, 105, 71, 127, 112, 45, 209, 57, 0, 188, 0, 188, 0, 60, 0, 60, 132, 244, 20, 0, 1, 105, 71, 127, 231, 48, 84, 58, 250, 182, 236, 189, 225, 58, 0, 60, 15, 238, 124, 0, 124, 240, 239, 127, 39, 50, 255, 59, 150, 188, 0, 60, 68, 61, 0, 60, 15, 238, 124, 0, 124, 240, 239, 127, 207, 8, 154, 56, 0, 188, 0, 188, 0, 60, 0, 60, 15, 238, 124, 0, 124, 240, 239, 127, 20, 45, 107, 59, 149, 179, 168, 189, 113, 60, 0, 60, 74, 6, 102, 0, 102, 243, 183, 127, 199, 51, 197, 59, 215, 36, 80, 189, 90, 59, 0, 60, 74, 6, 102, 0, 102, 243, 183, 127, 197, 52, 156, 59, 43, 185, 0, 60, 7, 61, 0, 60, 74, 6, 102, 0, 102, 243, 183, 127, 176, 45, 130, 56, 215, 36, 80, 189, 90, 59, 0, 60, 165, 234, 85, 0, 86, 210, 80, 127, 197, 52, 156, 59, 63, 53, 0, 60, 106, 63, 0, 60, 165, 234, 85, 0, 86, 210, 80, 127, 161, 52, 3, 56, 31, 173, 0, 60, 174, 61, 0, 60, 165, 234, 85, 0, 86, 210, 80, 127, 30, 50, 83, 56, 51, 51, 9, 189, 128, 60, 0, 60, 98, 228, 74, 0, 78, 11, 157, 127, 121, 53, 94, 59, 196, 57, 0, 60, 82, 61, 0, 60, 98, 228, 74, 0, 78, 11, 157, 127, 124, 54, 26, 56, 63, 53, 0, 60, 106, 63, 0, 60, 98, 228, 74, 0, 78, 11, 157, 127, 161, 52, 3, 56, 48, 56, 163, 188, 180, 59, 0, 60, 14, 234, 124, 0, 125, 243, 239, 127, 113, 54, 59, 59, 63, 61, 0, 60, 11, 61, 0, 60, 14, 234, 124, 0, 125, 243, 239, 127, 21, 56, 3, 56, 196, 57, 0, 60, 82, 61, 0, 60, 14, 234, 124, 0, 125, 243, 239, 127, 124, 54, 26, 56, 63, 61, 0, 60, 11, 61, 0, 60, 73, 232, 100, 0, 101, 252, 181, 127, 21, 56, 3, 56, 2, 58, 85, 188, 165, 60, 0, 60, 73, 232, 100, 0, 101, 252, 181, 127, 64, 55, 13, 59, 0, 60, 0, 188, 0, 60, 0, 60, 73, 232, 100, 0, 101, 252, 181, 127, 11, 56, 234, 58, 247, 60, 90, 187, 48, 57, 0, 60, 105, 231, 66, 0, 68, 5, 150, 127, 167, 56, 210, 58, 63, 61, 0, 60, 11, 61, 0, 60, 105, 231, 66, 0, 68, 5, 150, 127, 21, 56, 3, 56, 0, 60, 0, 188, 0, 60, 0, 60, 105, 231, 66, 0, 68, 5, 150, 127, 11, 56, 234, 58, 69, 62, 0, 60, 104, 57, 0, 60, 104, 238, 186, 0, 191, 28, 151, 127, 253, 56, 19, 56, 29, 60, 236, 187, 65, 54, 0, 60, 104, 238, 186, 0, 191, 28, 151, 127, 23, 57, 9, 59, 22, 61, 0, 60, 140, 51, 0, 60, 104, 238, 186, 0, 191, 28, 151, 127, 185, 57, 62, 56, 22, 61, 0, 60, 140, 51, 0, 60, 117, 245, 47, 0, 48, 13, 140, 127, 185, 57, 62, 56, 167, 60, 143, 187, 199, 41, 0, 60, 117, 245, 47, 0, 48, 13, 140, 127, 160, 57, 7, 59, 225, 61, 0, 60, 226, 179, 0, 60, 117, 245, 47, 0, 48, 13, 140, 127, 118, 58, 82, 56, 225, 61, 0, 60, 226, 179, 0, 60, 113, 240, 201, 0, 205, 28, 144, 127, 118, 58, 82, 56, 94, 60, 192, 187, 238, 182, 0, 60, 113, 240, 201, 0, 205, 28, 144, 127, 75, 58, 46, 59, 1, 61, 0, 60, 136, 185, 0, 60, 113, 240, 201, 0, 205, 28, 144, 127, 38, 59, 122, 56, 0, 60, 0, 60, 186, 188, 0, 60, 65, 221, 154, 0, 160, 36, 182, 127, 235, 59, 161, 56, 94, 60, 192, 187, 238, 182, 0, 60, 65, 221, 154, 0, 160, 36, 182, 127, 75, 58, 46, 59, 79, 57, 21, 183, 34, 187, 0, 60, 65, 221, 154, 0, 160, 36, 182, 127, 92, 59, 180, 58, 167, 60, 143, 187, 165, 186, 0, 60, 169, 167, 235, 0, 200, 75, 171, 127, 29, 54, 37, 33, 94, 60, 192, 187, 238, 182, 0, 60, 169, 167, 235, 0, 200, 75, 171, 127, 59, 53, 216, 47, 79, 57, 21, 183, 34, 187, 0, 60, 169, 167, 235, 0, 200, 75, 171, 127, 158, 56, 72, 49, 48, 56, 163, 188, 180, 59, 0, 60, 40, 136, 0, 0, 193, 235, 148, 127, 220, 45, 95, 56, 29, 60, 236, 187, 65, 54, 0, 60, 40, 136, 0, 0, 193, 235, 148, 127, 252, 48, 3, 53, 0, 60, 0, 188, 0, 60, 0, 60, 40, 136, 0, 0, 193, 235, 148, 127, 49, 6, 185, 54, 29, 60, 236, 187, 65, 54, 0, 60, 40, 136, 0, 0, 193, 235, 148, 127, 252, 48, 3, 53, 247, 60, 90, 187, 48, 57, 0, 60, 40, 136, 0, 0, 193, 235, 148, 127, 144, 42, 188, 52, 0, 60, 0, 188, 0, 60, 0, 60, 40, 136, 0, 0, 193, 235, 148, 127, 49, 6, 185, 54, 94, 60, 192, 187, 238, 182, 0, 60, 152, 188, 19, 0, 197, 66, 166, 127, 59, 53, 216, 47, 167, 60, 143, 187, 199, 41, 0, 60, 152, 188, 19, 0, 197, 66, 166, 127, 129, 50, 164, 50, 79, 57, 21, 183, 34, 187, 0, 60, 152, 188, 19, 0, 197, 66, 166, 127, 158, 56, 72, 49, 167, 60, 143, 187, 199, 41, 0, 60, 207, 144, 223, 0, 192, 56, 163, 127, 129, 50, 164, 50, 29, 60, 236, 187, 65, 54, 0, 60, 207, 144, 223, 0, 192, 56, 163, 127, 252, 48, 3, 53, 79, 57, 21, 183, 34, 187, 0, 60, 207, 144, 223, 0, 192, 56, 163, 127, 158, 56, 72, 49, 79, 57, 21, 183, 34, 187, 0, 60, 36, 142, 215, 0, 189, 17, 150, 127, 158, 56, 72, 49, 48, 56, 163, 188, 180, 59, 0, 60, 36, 142, 215, 0, 189, 17, 150, 127, 220, 45, 95, 56, 205, 43, 40, 185, 222, 186, 0, 60, 36, 142, 215, 0, 189, 17, 150, 127, 73, 57, 134, 53, 48, 56, 163, 188, 180, 59, 0, 60, 40, 136, 0, 0, 201, 238, 144, 127, 220, 45, 95, 56, 51, 51, 9, 189, 128, 60, 0, 60, 40, 136, 0, 0, 201, 238, 144, 127, 224, 45, 64, 57, 215, 36, 80, 189, 90, 59, 0, 60, 40, 136, 0, 0, 201, 238, 144, 127, 190, 49, 127, 57, 205, 43, 40, 185, 222, 186, 0, 60, 41, 144, 214, 0, 189, 15, 150, 127, 73, 57, 134, 53, 48, 56, 163, 188, 180, 59, 0, 60, 41, 144, 214, 0, 189, 15, 150, 127, 220, 45, 95, 56, 215, 36, 80, 189, 90, 59, 0, 60, 41, 144, 214, 0, 189, 15, 150, 127, 190, 49, 127, 57, 205, 43, 40, 185, 222, 186, 0, 60, 42, 145, 214, 0, 190, 14, 150, 127, 73, 57, 134, 53, 215, 36, 80, 189, 90, 59, 0, 60, 42, 145, 214, 0, 190, 14, 150, 127, 190, 49, 127, 57, 250, 182, 236, 189, 225, 58, 0, 60, 42, 145, 214, 0, 190, 14, 150, 127, 56, 52, 124, 58, 215, 36, 80, 189, 90, 59, 0, 60, 40, 136, 0, 0, 201, 238, 144, 127, 190, 49, 127, 57, 149, 179, 168, 189, 113, 60, 0, 60, 40, 136, 0, 0, 201, 238, 144, 127, 71, 49, 79, 58, 250, 182, 236, 189, 225, 58, 0, 60, 40, 136, 0, 0, 201, 238, 144, 127, 56, 52, 124, 58, 250, 182, 236, 189, 225, 58, 0, 60, 46, 146, 216, 0, 191, 11, 149, 127, 56, 52, 124, 58, 255, 182, 126, 186, 204, 187, 0, 60, 46, 146, 216, 0, 191, 11, 149, 127, 34, 58, 150, 55, 205, 43, 40, 185, 222, 186, 0, 60, 46, 146, 216, 0, 191, 11, 149, 127, 73, 57, 134, 53, 250, 182, 236, 189, 225, 58, 0, 60, 177, 159, 17, 0, 190, 35, 154, 127, 56, 52, 124, 58, 0, 188, 0, 188, 0, 60, 0, 60, 177, 159, 17, 0, 190, 35, 154, 127, 108, 54, 255, 59, 57, 188, 19, 188, 35, 57, 0, 60, 177, 159, 17, 0, 190, 35, 154, 127, 3, 56, 150, 59, 133, 186, 129, 187, 88, 55, 0, 60, 40, 136, 0, 0, 185, 233, 154, 127, 0, 56, 208, 58, 199, 186, 151, 187, 2, 33, 0, 60, 40, 136, 0, 0, 185, 233, 154, 127, 242, 56, 56, 58, 27, 185, 7, 187, 51, 170, 0, 60, 40, 136, 0, 0, 185, 233, 154, 127, 189, 56, 177, 57, 27, 185, 7, 187, 51, 170, 0, 60, 157, 182, 230, 0, 213, 88, 176, 127, 189, 56, 177, 57, 255, 182, 126, 186, 204, 187, 0, 60, 157, 182, 230, 0, 213, 88, 176, 127, 34, 58, 150, 55, 250, 182, 236, 189, 225, 58, 0, 60, 157, 182, 230, 0, 213, 88, 176, 127, 56, 52, 124, 58, 255, 182, 126, 186, 204, 187, 0, 60, 40, 136, 0, 0, 178, 230, 160, 127, 34, 58, 150, 55, 27, 185, 7, 187, 51, 170, 0, 60, 40, 136, 0, 0, 178, 230, 160, 127, 189, 56, 177, 57, 93, 185, 29, 187, 144, 183, 0, 60, 40, 136, 0, 0, 178, 230, 160, 127, 151, 57, 17, 57, 93, 185, 29, 187, 144, 183, 0, 60, 40, 136, 0, 0, 178, 230, 160, 127, 151, 57, 17, 57, 107, 187, 206, 187, 63, 185, 0, 60, 40, 136, 0, 0, 178, 230, 160, 127, 96, 58, 71, 57, 255, 182, 126, 186, 204, 187, 0, 60, 40, 136, 0, 0, 178, 230, 160, 127, 34, 58, 150, 55, 107, 187, 206, 187, 63, 185, 0, 60, 40, 136, 0, 0, 178, 230, 160, 127, 96, 58, 71, 57, 0, 188, 0, 188, 0, 188, 0, 60, 40, 136, 0, 0, 178, 230, 160, 127, 36, 59, 221, 56, 255, 182, 126, 186, 204, 187, 0, 60, 40, 136, 0, 0, 178, 230, 160, 127, 34, 58, 150, 55, 79, 57, 21, 183, 34, 187, 0, 60, 50, 232, 143, 0, 115, 21, 46, 127, 187, 58, 134, 49, 253, 53, 81, 184, 0, 188, 0, 60, 50, 232, 143, 0, 115, 21, 46, 127, 70, 58, 71, 49, 79, 51, 0, 60, 150, 189, 0, 60, 50, 232, 143, 0, 115, 21, 46, 127, 59, 58, 46, 55, 79, 57, 21, 183, 34, 187, 0, 60, 232, 237, 133, 0, 1, 131, 19, 129, 255, 59, 120, 54, 218, 56, 0, 60, 106, 188, 0, 60, 232, 237, 133, 0, 1, 131, 19, 129, 230, 58, 230, 54, 0, 60, 0, 60, 186, 188, 0, 60, 232, 237, 133, 0, 1, 131, 19, 129, 120, 59, 157, 48, 253, 53, 81, 184, 0, 188, 0, 60, 222, 209, 144, 0, 121, 253, 221, 127, 70, 58, 71, 49, 205, 43, 40, 185, 222, 186, 0, 60, 222, 209, 144, 0, 121, 253, 221, 127, 203, 57, 146, 48, 43, 179, 0, 60, 226, 189, 0, 60, 222, 209, 144, 0, 121, 253, 221, 127, 150, 57, 83, 55, 205, 43, 40, 185, 222, 186, 0, 60, 92, 19, 171, 0, 78, 36, 93, 127, 203, 57, 146, 48, 203, 178, 227, 185, 178, 188, 0, 60, 92, 19, 171, 0, 78, 36, 93, 127, 48, 57, 194, 48, 240, 184, 0, 60, 213, 188, 0, 60, 92, 19, 171, 0, 78, 36, 93, 127, 234, 56, 108, 55, 10, 185, 2, 187, 255, 188, 0, 60, 21, 2, 131, 0, 124, 15, 21, 127, 144, 56, 65, 48, 240, 184, 0, 60, 213, 188, 0, 60, 21, 2, 131, 0, 124, 15, 21, 127, 234, 56, 108, 55, 203, 178, 227, 185, 178, 188, 0, 60, 21, 2, 131, 0, 124, 15, 21, 127, 48, 57, 194, 48, 240, 184, 0, 60, 213, 188, 0, 60, 185, 2, 152, 0, 104, 11, 185, 127, 234, 56, 108, 55, 10, 185, 2, 187, 255, 188, 0, 60, 185, 2, 152, 0, 104, 11, 185, 127, 144, 56, 65, 48, 0, 188, 0, 188, 0, 188, 0, 60, 185, 2, 152, 0, 104, 11, 185, 127, 213, 55, 151, 47, 107, 187, 206, 187, 63, 185, 0, 60, 145, 222, 206, 0, 51, 4, 141, 127, 213, 54, 122, 47, 103, 190, 0, 60, 21, 184, 0, 60, 145, 222, 206, 0, 51, 4, 141, 127, 225, 53, 191, 55, 61, 189, 0, 60, 149, 188, 0, 60, 145, 222, 206, 0, 51, 4, 141, 127, 221, 55, 171, 55, 107, 187, 206, 187, 63, 185, 0, 60, 202, 203, 101, 0, 165, 209, 182, 127, 213, 54, 122, 47, 93, 185, 29, 187, 144, 183, 0, 60, 202, 203, 101, 0, 165, 209, 182, 127, 232, 53, 2, 47, 94, 191, 0, 60, 140, 174, 0, 60, 202, 203, 101, 0, 165, 209, 182, 127, 143, 52, 2, 56, 93, 185, 29, 187, 144, 183, 0, 60, 149, 189, 9, 0, 251, 246, 130, 127, 232, 53, 2, 47, 27, 185, 7, 187, 51, 170, 0, 60, 149, 189, 9, 0, 251, 246, 130, 127, 179, 52, 177, 46, 47, 191, 0, 60, 45, 52, 0, 60, 149, 189, 9, 0, 251, 246, 130, 127, 12, 51, 231, 55, 27, 185, 7, 187, 51, 170, 0, 60, 217, 17, 137, 0, 113, 47, 226, 127, 179, 52, 177, 46, 199, 186, 151, 187, 2, 33, 0, 60, 217, 17, 137, 0, 113, 47, 226, 127, 13, 52, 223, 46, 160, 190, 0, 60, 133, 56, 0, 60, 217, 17, 137, 0, 113, 47, 226, 127, 43, 49, 192, 55, 199, 186, 151, 187, 2, 33, 0, 60, 135, 220, 9, 0, 247, 255, 130, 127, 13, 52, 223, 46, 133, 186, 129, 187, 88, 55, 0, 60, 135, 220, 9, 0, 247, 255, 130, 127, 138, 49, 239, 46, 122, 189, 237, 59, 153, 58, 0, 60, 135, 220, 9, 0, 247, 255, 130, 127, 38, 46, 103, 55, 133, 186, 129, 187, 88, 55, 0, 60, 176, 27, 162, 0, 97, 14, 177, 127, 138, 49, 239, 46, 57, 188, 19, 188, 35, 57, 0, 60, 176, 27, 162, 0, 97, 14, 177, 127, 142, 47, 109, 46, 150, 188, 0, 60, 68, 61, 0, 60, 176, 27, 162, 0, 97, 14, 177, 127, 207, 8, 93, 55, 250, 182, 236, 189, 225, 58, 0, 60, 14, 238, 124, 0, 124, 240, 239, 127, 39, 50, 255, 59, 43, 185, 0, 60, 7, 61, 0, 60, 14, 238, 124, 0, 124, 240, 239, 127, 176, 45, 130, 56, 150, 188, 0, 60, 68, 61, 0, 60, 14, 238, 124, 0, 124, 240, 239, 127, 207, 8, 154, 56, 31, 173, 0, 60, 174, 61, 0, 60, 222, 229, 119, 0, 120, 229, 28, 127, 30, 50, 83, 56, 43, 185, 0, 60, 7, 61, 0, 60, 222, 229, 119, 0, 120, 229, 28, 127, 176, 45, 130, 56, 215, 36, 80, 189, 90, 59, 0, 60, 222, 229, 119, 0, 120, 229, 28, 127, 197, 52, 156, 59, 43, 185, 0, 60, 7, 61, 0, 60, 161, 235, 81, 0, 83, 220, 88, 127, 176, 45, 130, 56, 250, 182, 236, 189, 225, 58, 0, 60, 161, 235, 81, 0, 83, 220, 88, 127, 39, 50, 255, 59, 149, 179, 168, 189, 113, 60, 0, 60, 161, 235, 81, 0, 83, 220, 88, 127, 199, 51, 197, 59, 215, 36, 80, 189, 90, 59, 0, 60, 173, 231, 92, 0, 94, 212, 72, 127, 197, 52, 156, 59, 51, 51, 9, 189, 128, 60, 0, 60, 173, 231, 92, 0, 94, 212, 72, 127, 121, 53, 94, 59, 63, 53, 0, 60, 106, 63, 0, 60, 173, 231, 92, 0, 94, 212, 72, 127, 161, 52, 3, 56, 51, 51, 9, 189, 128, 60, 0, 60, 65, 232, 106, 0, 108, 2, 190, 127, 121, 53, 94, 59, 48, 56, 163, 188, 180, 59, 0, 60, 65, 232, 106, 0, 108, 2, 190, 127, 113, 54, 59, 59, 196, 57, 0, 60, 82, 61, 0, 60, 65, 232, 106, 0, 108, 2, 190, 127, 124, 54, 26, 56, 48, 56, 163, 188, 180, 59, 0, 60, 170, 18, 91, 0, 88, 235, 88, 127, 113, 54, 59, 59, 2, 58, 85, 188, 165, 60, 0, 60, 170, 18, 91, 0, 88, 235, 88, 127, 64, 55, 13, 59, 63, 61, 0, 60, 11, 61, 0, 60, 170, 18, 91, 0, 88, 235, 88, 127, 21, 56, 3, 56, 247, 60, 90, 187, 48, 57, 0, 60, 114, 236, 50, 0, 52, 8, 141, 127, 167, 56, 210, 58, 69, 62, 0, 60, 104, 57, 0, 60, 114, 236, 50, 0, 52, 8, 141, 127, 253, 56, 19, 56, 63, 61, 0, 60, 11, 61, 0, 60, 114, 236, 50, 0, 52, 8, 141, 127, 21, 56, 3, 56, 69, 62, 0, 60, 104, 57, 0, 60, 99, 241, 179, 0, 183, 29, 157, 127, 253, 56, 19, 56, 247, 60, 90, 187, 48, 57, 0, 60, 99, 241, 179, 0, 183, 29, 157, 127, 167, 56, 210, 58, 29, 60, 236, 187, 65, 54, 0, 60, 99, 241, 179, 0, 183, 29, 157, 127, 23, 57, 9, 59, 22, 61, 0, 60, 140, 51, 0, 60, 118, 245, 44, 0, 45, 13, 139, 127, 185, 57, 62, 56, 29, 60, 236, 187, 65, 54, 0, 60, 118, 245, 44, 0, 45, 13, 139, 127, 23, 57, 9, 59, 167, 60, 143, 187, 199, 41, 0, 60, 118, 245, 44, 0, 45, 13, 139, 127, 160, 57, 7, 59, 225, 61, 0, 60, 226, 179, 0, 60, 123, 234, 239, 0, 243, 21, 132, 127, 118, 58, 82, 56, 167, 60, 143, 187, 199, 41, 0, 60, 123, 234, 239, 0, 243, 21, 132, 127, 160, 57, 7, 59, 94, 60, 192, 187, 238, 182, 0, 60, 123, 234, 239, 0, 243, 21, 132, 127, 75, 58, 46, 59, 0, 60, 0, 60, 186, 188, 0, 60, 112, 240, 199, 0, 203, 24, 144, 127, 235, 59, 161, 56, 1, 61, 0, 60, 136, 185, 0, 60, 112, 240, 199, 0, 203, 24, 144, 127, 38, 59, 122, 56, 94, 60, 192, 187, 238, 182, 0, 60, 112, 240, 199, 0, 203, 24, 144, 127, 75, 58, 46, 59 ),
"array_index_data": PoolByteArray( 0, 0, 2, 0, 1, 0, 3, 0, 5, 0, 4, 0, 6, 0, 8, 0, 7, 0, 9, 0, 11, 0, 10, 0, 12, 0, 14, 0, 13, 0, 15, 0, 17, 0, 16, 0, 18, 0, 20, 0, 19, 0, 21, 0, 23, 0, 22, 0, 24, 0, 26, 0, 25, 0, 27, 0, 29, 0, 28, 0, 30, 0, 32, 0, 31, 0, 33, 0, 35, 0, 34, 0, 35, 0, 36, 0, 34, 0, 34, 0, 36, 0, 37, 0, 38, 0, 40, 0, 39, 0, 38, 0, 41, 0, 40, 0, 42, 0, 44, 0, 43, 0, 43, 0, 44, 0, 45, 0, 46, 0, 48, 0, 47, 0, 49, 0, 51, 0, 50, 0, 52, 0, 54, 0, 53, 0, 55, 0, 57, 0, 56, 0, 58, 0, 60, 0, 59, 0, 61, 0, 63, 0, 62, 0, 64, 0, 66, 0, 65, 0, 67, 0, 69, 0, 68, 0, 70, 0, 72, 0, 71, 0, 73, 0, 75, 0, 74, 0, 76, 0, 78, 0, 77, 0, 79, 0, 81, 0, 80, 0, 82, 0, 84, 0, 83, 0, 85, 0, 87, 0, 86, 0, 88, 0, 90, 0, 89, 0, 91, 0, 93, 0, 92, 0, 94, 0, 96, 0, 95, 0, 97, 0, 99, 0, 98, 0, 100, 0, 102, 0, 101, 0, 103, 0, 105, 0, 104, 0, 106, 0, 108, 0, 107, 0, 109, 0, 111, 0, 110, 0, 112, 0, 114, 0, 113, 0, 115, 0, 117, 0, 116, 0, 118, 0, 120, 0, 119, 0, 121, 0, 123, 0, 122, 0, 124, 0, 126, 0, 125, 0, 127, 0, 129, 0, 128, 0, 130, 0, 132, 0, 131, 0, 133, 0, 135, 0, 134, 0, 136, 0, 138, 0, 137, 0, 139, 0, 141, 0, 140, 0, 142, 0, 144, 0, 143, 0, 145, 0, 147, 0, 146, 0, 148, 0, 150, 0, 149, 0, 151, 0, 153, 0, 152, 0, 154, 0, 156, 0, 155, 0, 157, 0, 159, 0, 158, 0, 160, 0, 162, 0, 161, 0, 163, 0, 165, 0, 164, 0, 166, 0, 168, 0, 167, 0, 169, 0, 171, 0, 170, 0, 172, 0, 174, 0, 173, 0, 175, 0, 177, 0, 176, 0, 178, 0, 180, 0, 179, 0, 181, 0, 183, 0, 182, 0, 184, 0, 186, 0, 185, 0, 187, 0, 189, 0, 188, 0, 190, 0, 192, 0, 191, 0, 193, 0, 195, 0, 194, 0, 196, 0, 198, 0, 197, 0, 199, 0, 201, 0, 200, 0, 202, 0, 204, 0, 203, 0, 205, 0, 207, 0, 206, 0, 208, 0, 210, 0, 209, 0, 211, 0, 213, 0, 212, 0, 214, 0, 216, 0, 215, 0, 217, 0, 219, 0, 218, 0, 220, 0, 222, 0, 221, 0, 223, 0, 225, 0, 224, 0, 226, 0, 228, 0, 227, 0, 229, 0, 231, 0, 230, 0, 232, 0, 234, 0, 233, 0, 235, 0, 237, 0, 236, 0, 238, 0, 240, 0, 239, 0, 241, 0, 243, 0, 242, 0, 244, 0, 246, 0, 245, 0, 247, 0, 249, 0, 248, 0, 250, 0, 252, 0, 251, 0, 253, 0, 255, 0, 254, 0, 0, 1, 2, 1, 1, 1, 3, 1, 5, 1, 4, 1, 6, 1, 8, 1, 7, 1 ),
"blend_shape_data": [  ],
"format": 98071,
"index_count": 273,
"material": SubResource( 1 ),
"primitive": 4,
"skeleton_aabb": [  ],
"vertex_count": 265
}

